text2sdg: An open-source solution to monitoring sustainable development goals from text • text2sdg
…
features (character) - words in the document that were matched by the query

hit (numeric) - running index of matches for each query system

The example below runs the detect_sdg() for the projects data set included in the package prints the results. The data set is character vector containing 500 descriptions of randomly selected University of Basel research projects that were funded by the Swiss National Science Foundation (https://p3.snf.ch). The analysis produced a total of 462 matches using the three default query systems Aurora, Elsevier, and SIRIS.

# detecting SDGs in projects
hits_default <- detect_sdg(projects)
#> 
#> Running aurora queries
#> Running siris queries
#> Running elsevier queries
hits_default
#> # A tibble: 462 × 6
#>    document sdg    system  query_id features                                 hit
#>  * <fct>    <chr>  <chr>      <int> <chr>                                  <int>
#>  1 1        SDG-03 elsevi…        3 tuberculosis, human, tuberculosis, di…     1
#>  2 6        SDG-03 elsevi…        3 cancer                                     2
#>  3 8        SDG-03 elsevi…        3 vaccine                                    3
#>  4 14       SDG-03 elsevi…        3 cancer, cardiovascular, disease, obes…     4
#>  5 15       SDG-03 elsevi…        3 disease, human, human, human, disease…     5
#>  6 17       SDG-13 elsevi…       13 climate, prediction                        6
#>  7 19       SDG-03 elsevi…        3 mental, health, mental, health, menta…     7
#>  8 19       SDG-03 siris        749 sleep, quality                             1
#>  9 21       SDG-03 elsevi…        3 human, medicine, health, human             8
#> 10 22       SDG-03 elsevi…        3 cancer, cancer, cancer, cancer, cance…     9
#> # … with 452 more rows
…
Selecting SDGs

By default the detect_sdg() function aims to detect all SDGs covered by the different systems, which is 17 for Aurora, Ontology, and SDSN, and 16 for Elsevier and Siris. The latter two do not include queries for goal 17 - Global Partnerships for the Goals. If the user is only interested in a subset of SDGs or wants to reduce runtime, the sdgs argument can be used to run subsets of SDGs. The argument takes a numeric vector with integers in [1,17] indicating the SDGs that shall be detected.

The example below runs the detect_sdg() function only for SDGs 1, 2, 3, 4, and 5.

# detecting only for SDGs 1 to 5
hits_sdg_subset <- detect_sdg(projects, sdgs = 1:5)
#> 
#> Running aurora queries
#> Running siris queries
#> Running elsevier queries
hits_sdg_subset
#> # A tibble: 241 × 6
#>    document sdg    system  query_id features                                 hit
#>  * <fct>    <chr>  <chr>      <int> <chr>                                  <int>
#>  1 1        SDG-03 elsevi…        3 tuberculosis, human, tuberculosis, di…     1
#>  2 6        SDG-03 elsevi…        3 cancer                                     2
#>  3 8        SDG-03 elsevi…        3 vaccine                                    3
#>  4 14       SDG-03 elsevi…        3 cancer, cardiovascular, disease, obes…     4
#>  5 15       SDG-03 elsevi…        3 disease, human, human, human, disease…     5
#>  6 19       SDG-03 elsevi…        3 mental, health, mental, health, menta…     6
#>  7 19       SDG-03 siris        749 sleep, quality                             1
#>  8 21       SDG-03 elsevi…        3 human, medicine, health, human             7
#>  9 22       SDG-03 elsevi…        3 cancer, cancer, cancer, cancer, cance…     8
#> 10 23       SDG-03 elsevi…        3 cancers, cancer, diseases, Human           9
#> # … with 231 more rows

Controlling the output

By default the output of the detect_sdg() function returns matches at the level of query. This means one SDG can be matched multiple times in one document, which is possible because there are multiple queries belonging to the same SDGs produced in all systems except for Elsevier. On this level, it is meaningful to study the features (individual words) that were matched by the individual queries, which is why we refer to this output type as "features". If the user is only interested in matches at the level of documents, a reduced output can be selected by setting the output argument to "documents". As a result, the detect_sdg() returns a tibble that includes only distinct matches of document, system, and sdg combinations and drops the columns query_id and features.

The example below shows the alternative output resulting from setting output = "documents".

# return documents output format
detect_sdg(projects, output = "documents")
#> 
#> Running aurora queries
#> Running siris queries
#> Running elsevier queries
#> # A tibble: 418 × 4
#>    document sdg    system    hits
#>    <fct>    <chr>  <chr>    <int>
#>  1 1        SDG-03 elsevier     1
#>  2 6        SDG-03 elsevier     1
#>  3 8        SDG-03 elsevier     1
#>  4 14       SDG-03 elsevier     1
#>  5 15       SDG-03 elsevier     1
#>  6 17       SDG-13 elsevier     1
#>  7 19       SDG-03 elsevier     1
#>  8 19       SDG-03 siris        1
#>  9 21       SDG-03 elsevier     1
#> 10 22       SDG-03 elsevier     1
#> # … with 408 more rows
…
queries (character) - queries used in search.

sdg (integer) - mapping of queries to SDGs.

The queries in the custom query set can be Lucene-style queries following the syntax of the corpustools package. See vignette("corpustools"). This is illustrated in the example below. First, a tibble of three queries is defined that includes a single system and three queries that are mapped onto two sdgs, 3 and 7. The first query represents a simple keyword search, whereas queries 2 and 3 are proper search queries using logical operators.

# definition of query set
my_queries <- tibble::tibble(system = "my_system",
                              query = c("theory", "analysis OR analyses OR analyzed", "study AND hypothesis"),
                              sdg = c(3,7,7))

# return documents output format
detect_any(text = projects, 
           queries = my_queries)
#> # A tibble: 280 × 6
#>    document sdg    system    query_id features             hit
#>    <fct>    <chr>  <chr>        <dbl> <chr>              <int>
#>  1 2        SDG-07 my_system        2 analysis              62
#>  2 4        SDG-07 my_system        2 analysis             189
#>  3 8        SDG-07 my_system        2 analyses, analysis   267
#>  4 9        SDG-07 my_system        2 analysis             274
#>  5 10       SDG-07 my_system        2 analysis, analyses     1
#>  6 11       SDG-07 my_system        2 analysis               6
#>  7 13       SDG-07 my_system        3 hypothesis, study     19
#>  8 15       SDG-07 my_system        2 analysis              28
#>  9 15       SDG-07 my_system        3 study, hypothesis     29
#> 10 16       SDG-07 my_system        2 analyzed              39
#> # … with 270 more rows
…
