Detect SDGs in text using ensemble model — detect_sdg • text2sdg
…
# run sdg detection for sdg 3 only
hits <- detect_sdg(projects, sdgs = 3)
#> Running systems
#> Obtaining text lengths
#> Building features
#> Running ensemble

# extract systems hits
attr(hits, "system_hits")
#> # A tibble: 979 × 5
#>    document sdg    system   n_hit features                                      
#>    <fct>    <chr>  <chr>    <int> <chr>                                         
#>  1 1        SDG-03 Auckland     1 tuberculosis, human, tuberculosis, disease    
#>  2 1        SDG-03 Elsevier     1 tuberculosis, human, tuberculosis, disease    
#>  3 1        SDG-03 SDGO         7 antibiotics, bacteria, disease, infection, in…
#>  4 1        SDG-03 SDSN         1 tuberculosis                                  
#>  5 2        SDG-03 Auckland     1 SARs                                          
#>  6 3        SDG-03 Auckland     1 immunology, medicine                          
#>  7 3        SDG-03 SDGO         7 disease, disease, states, epigenetic, fetal, …
#>  8 3        SDG-03 SDSN         1 health                                        
#>  9 6        SDG-03 Auckland     1 cancer                                        
#> 10 6        SDG-03 Elsevier     1 cancer                                        
#> # ℹ 969 more rows
…
